==============================
[+] Start Brute Force UID on : 192.168.1.40
[+] UID on 192.168.1.40 is : 1
[+] UID on 192.168.1.40 is : 2
[+] UID on 192.168.1.40 is : 3
[+] UID on 192.168.1.40 is : 4
[+] UID on 192.168.1.40 is : 5
[+] UID on 192.168.1.40 is : 6
[+] UID on 192.168.1.40 is : 7
[+] UID on 192.168.1.40 is : 8
[+] UID on 192.168.1.40 is : 9
[+] UID on 192.168.1.40 is : 10
[+] UID on 192.168.1.40 is : 11
[+] UID on 192.168.1.40 is : 12
[+] UID on 192.168.1.40 is : 13
[+] UID on 192.168.1.40 is : 14
[+] UID on 192.168.1.40 is : 15
[+] UID on 192.168.1.40 is : 16
[+] UID on 192.168.1.40 is : 17
[+] UID on 192.168.1.40 is : 18
[+] UID on 192.168.1.40 is : 19
[+] UID on 192.168.1.40 is : 20
[+] UID on 192.168.1.40 is : 21
[+] UID on 192.168.1.40 is : 22
[+] UID on 192.168.1.40 is : 23
[+] UID on 192.168.1.40 is : 24
[+] UID on 192.168.1.40 is : 25
[+] UID on 192.168.1.40 is : 26
[+] UID on 192.168.1.40 is : 27
[+] UID on 192.168.1.40 is : 28
[+] UID on 192.168.1.40 is : 29
[+] UID on 192.168.1.40 is : 30
[+] UID on 192.168.1.40 is : 31
[+] UID on 192.168.1.40 is : 32
[+] UID on 192.168.1.40 is : 33
[+] UID on 192.168.1.40 is : 34
[+] UID on 192.168.1.40 is : 35
[+] UID on 192.168.1.40 is : 36
[+] UID on 192.168.1.40 is : 37
[+] UID on 192.168.1.40 is : 38
[+] UID on 192.168.1.40 is : 39
[+] UID on 192.168.1.40 is : 40
[+] UID on 192.168.1.40 is : 41
[+] UID on 192.168.1.40 is : 42
[+] UID on 192.168.1.40 is : 43
[+] UID on 192.168.1.40 is : 44
[+] UID on 192.168.1.40 is : 45
[+] UID on 192.168.1.40 is : 46
[+] UID on 192.168.1.40 is : 47
[+] UID on 192.168.1.40 is : 48
[+] UID on 192.168.1.40 is : 49
[+] UID on 192.168.1.40 is : 50
[+] UID on 192.168.1.40 is : 51
[+] UID on 192.168.1.40 is : 52
[+] UID on 192.168.1.40 is : 53
[+] UID on 192.168.1.40 is : 54
[+] UID on 192.168.1.40 is : 55
[+] UID on 192.168.1.40 is : 56
[+] UID on 192.168.1.40 is : 57
[+] UID on 192.168.1.40 is : 58
[+] UID on 192.168.1.40 is : 59
[+] UID on 192.168.1.40 is : 60
[+] UID on 192.168.1.40 is : 61
[+] UID on 192.168.1.40 is : 62
[+] UID on 192.168.1.40 is : 63
[+] UID on 192.168.1.40 is : 64
[+] UID on 192.168.1.40 is : 65
[+] UID on 192.168.1.40 is : 66
[+] UID on 192.168.1.40 is : 67
[+] UID on 192.168.1.40 is : 68
[+] UID on 192.168.1.40 is : 69
[+] UID on 192.168.1.40 is : 70
[+] UID on 192.168.1.40 is : 71
[+] UID on 192.168.1.40 is : 72
[+] UID on 192.168.1.40 is : 73
[+] UID on 192.168.1.40 is : 74
[+] UID on 192.168.1.40 is : 75
[+] UID on 192.168.1.40 is : 76
[+] UID on 192.168.1.40 is : 77
[+] UID on 192.168.1.40 is : 78
[+] UID on 192.168.1.40 is : 79
[+] UID on 192.168.1.40 is : 80
[+] UID on 192.168.1.40 is : 81
[+] UID on 192.168.1.40 is : 82
[+] UID on 192.168.1.40 is : 83
[+] UID on 192.168.1.40 is : 84
[+] UID on 192.168.1.40 is : 85
[+] UID on 192.168.1.40 is : 86
[+] UID on 192.168.1.40 is : 87
[+] UID on 192.168.1.40 is : 88
[+] UID on 192.168.1.40 is : 89
[+] UID on 192.168.1.40 is : 90
[+] UID on 192.168.1.40 is : 91
[+] UID on 192.168.1.40 is : 92
[+] UID on 192.168.1.40 is : 93
[+] UID on 192.168.1.40 is : 94
[+] UID on 192.168.1.40 is : 95
[+] UID on 192.168.1.40 is : 96
[+] UID on 192.168.1.40 is : 97
[+] UID on 192.168.1.40 is : 98
[+] UID on 192.168.1.40 is : 99
[+] UID on 192.168.1.40 is : 100
[+] UID on 192.168.1.40 is : 101
[+] UID on 192.168.1.40 is : 102
[+] UID on 192.168.1.40 is : 103
[+] UID on 192.168.1.40 is : 104
[+] UID on 192.168.1.40 is : 105
[+] UID on 192.168.1.40 is : 106
[+] UID on 192.168.1.40 is : 107
[+] UID on 192.168.1.40 is : 108
[+] UID on 192.168.1.40 is : 109
[+] UID on 192.168.1.40 is : 110
[+] UID on 192.168.1.40 is : 111
[+] UID on 192.168.1.40 is : 112
[+] UID on 192.168.1.40 is : 113
[+] UID on 192.168.1.40 is : 114
[+] UID on 192.168.1.40 is : 115
[+] UID on 192.168.1.40 is : 116
[+] UID on 192.168.1.40 is : 117
[+] UID on 192.168.1.40 is : 118
[+] UID on 192.168.1.40 is : 119
[+] UID on 192.168.1.40 is : 120
[+] UID on 192.168.1.40 is : 121
[+] UID on 192.168.1.40 is : 122
[+] UID on 192.168.1.40 is : 123
[+] UID on 192.168.1.40 is : 124
[+] UID on 192.168.1.40 is : 125
[+] UID on 192.168.1.40 is : 126
[+] UID on 192.168.1.40 is : 127
[+] UID on 192.168.1.40 is : 128
[+] UID on 192.168.1.40 is : 129
[+] UID on 192.168.1.40 is : 130
[+] UID on 192.168.1.40 is : 131
[+] UID on 192.168.1.40 is : 132
[+] UID on 192.168.1.40 is : 133
[+] UID on 192.168.1.40 is : 134
[+] UID on 192.168.1.40 is : 135
[+] UID on 192.168.1.40 is : 136
[+] UID on 192.168.1.40 is : 137
[+] UID on 192.168.1.40 is : 138
[+] UID on 192.168.1.40 is : 139
[+] UID on 192.168.1.40 is : 140
[+] UID on 192.168.1.40 is : 141
[+] UID on 192.168.1.40 is : 142
[+] UID on 192.168.1.40 is : 143
[+] UID on 192.168.1.40 is : 144
[+] UID on 192.168.1.40 is : 145
[+] UID on 192.168.1.40 is : 146
[+] UID on 192.168.1.40 is : 147
[+] UID on 192.168.1.40 is : 148
[+] UID on 192.168.1.40 is : 149
[+] UID on 192.168.1.40 is : 150
[+] UID on 192.168.1.40 is : 151
[+] UID on 192.168.1.40 is : 152
[+] UID on 192.168.1.40 is : 153
[+] UID on 192.168.1.40 is : 154
[+] UID on 192.168.1.40 is : 155
[+] UID on 192.168.1.40 is : 156
[+] UID on 192.168.1.40 is : 157
[+] UID on 192.168.1.40 is : 158
[+] UID on 192.168.1.40 is : 159
[+] UID on 192.168.1.40 is : 160
[+] UID on 192.168.1.40 is : 161
[+] UID on 192.168.1.40 is : 162
[+] UID on 192.168.1.40 is : 163
[+] UID on 192.168.1.40 is : 164
[+] UID on 192.168.1.40 is : 165
[+] UID on 192.168.1.40 is : 166
[+] UID on 192.168.1.40 is : 167
[+] UID on 192.168.1.40 is : 168
[+] UID on 192.168.1.40 is : 169
[+] UID on 192.168.1.40 is : 170
[+] UID on 192.168.1.40 is : 171
[+] UID on 192.168.1.40 is : 172
[+] UID on 192.168.1.40 is : 173
[+] UID on 192.168.1.40 is : 174
[+] UID on 192.168.1.40 is : 175
[+] UID on 192.168.1.40 is : 176
[+] UID on 192.168.1.40 is : 177
[+] UID on 192.168.1.40 is : 178
[+] UID on 192.168.1.40 is : 179
[+] UID on 192.168.1.40 is : 180
[+] UID on 192.168.1.40 is : 181
[+] UID on 192.168.1.40 is : 182
[+] UID on 192.168.1.40 is : 183
[+] UID on 192.168.1.40 is : 184
[+] UID on 192.168.1.40 is : 185
[+] UID on 192.168.1.40 is : 186
[+] UID on 192.168.1.40 is : 187
[+] UID on 192.168.1.40 is : 188
[+] UID on 192.168.1.40 is : 189
[+] UID on 192.168.1.40 is : 190
[+] UID on 192.168.1.40 is : 191
[+] UID on 192.168.1.40 is : 192
[+] UID on 192.168.1.40 is : 193
[+] UID on 192.168.1.40 is : 194
[+] UID on 192.168.1.40 is : 195
[+] UID on 192.168.1.40 is : 196
[+] UID on 192.168.1.40 is : 197
[+] UID on 192.168.1.40 is : 198
[+] UID on 192.168.1.40 is : 199
[+] UID on 192.168.1.40 is : 200
[+] UID on 192.168.1.40 is : 201
[+] UID on 192.168.1.40 is : 202
[+] UID on 192.168.1.40 is : 203
[+] UID on 192.168.1.40 is : 204
[+] UID on 192.168.1.40 is : 205
[+] UID on 192.168.1.40 is : 206
[+] UID on 192.168.1.40 is : 207
[+] UID on 192.168.1.40 is : 208
[+] UID on 192.168.1.40 is : 209
[+] UID on 192.168.1.40 is : 210
[+] UID on 192.168.1.40 is : 211
[+] UID on 192.168.1.40 is : 212
[+] UID on 192.168.1.40 is : 213
[+] UID on 192.168.1.40 is : 214
[+] UID on 192.168.1.40 is : 215
[+] UID on 192.168.1.40 is : 216
[+] UID on 192.168.1.40 is : 217
[+] UID on 192.168.1.40 is : 218
[+] UID on 192.168.1.40 is : 219
[+] UID on 192.168.1.40 is : 220
[+] UID on 192.168.1.40 is : 221
[+] UID on 192.168.1.40 is : 222
[+] UID on 192.168.1.40 is : 223
[+] UID on 192.168.1.40 is : 224
[+] UID on 192.168.1.40 is : 225
[+] UID on 192.168.1.40 is : 226
[+] UID on 192.168.1.40 is : 227
[+] UID on 192.168.1.40 is : 228
[+] UID on 192.168.1.40 is : 229
[+] UID on 192.168.1.40 is : 230
[+] UID on 192.168.1.40 is : 231
[+] UID on 192.168.1.40 is : 232
[+] UID on 192.168.1.40 is : 233
[+] UID on 192.168.1.40 is : 234
[+] UID on 192.168.1.40 is : 235
[+] UID on 192.168.1.40 is : 236
[+] UID on 192.168.1.40 is : 237
[+] UID on 192.168.1.40 is : 238
[+] UID on 192.168.1.40 is : 239
[+] UID on 192.168.1.40 is : 240
[+] UID on 192.168.1.40 is : 241
[+] UID on 192.168.1.40 is : 242
[+] UID on 192.168.1.40 is : 243
[+] UID on 192.168.1.40 is : 244
[+] UID on 192.168.1.40 is : 245
[+] UID on 192.168.1.40 is : 246
[+] UID on 192.168.1.40 is : 247
[+] UID on 192.168.1.40 is : 248
[+] UID on 192.168.1.40 is : 249
[+] UID on 192.168.1.40 is : 250
[+] UID on 192.168.1.40 is : 251
[+] UID on 192.168.1.40 is : 252
[+] UID on 192.168.1.40 is : 253
[+] UID on 192.168.1.40 is : 254


